module dbs/hotel

go 1.18

require (
	github.com/aws/aws-sdk-go-v2/config v1.15.2
	github.com/aws/aws-sdk-go-v2/feature/rds/auth v1.1.18
	github.com/go-sql-driver/mysql v1.6.0
	github.com/gorilla/mux v1.8.0
)

require (
	github.com/aws/aws-sdk-go-v2 v1.16.1 // indirect
	github.com/aws/aws-sdk-go-v2/credentials v1.11.1 // indirect
	github.com/aws/aws-sdk-go-v2/feature/ec2/imds v1.12.2 // indirect
	github.com/aws/aws-sdk-go-v2/internal/configsources v1.1.8 // indirect
	github.com/aws/aws-sdk-go-v2/internal/endpoints/v2 v2.4.2 // indirect
	github.com/aws/aws-sdk-go-v2/internal/ini v1.3.9 // indirect
	github.com/aws/aws-sdk-go-v2/service/internal/presigned-url v1.9.2 // indirect
	github.com/aws/aws-sdk-go-v2/service/sso v1.11.2 // indirect
	github.com/aws/aws-sdk-go-v2/service/sts v1.16.2 // indirect
	github.com/aws/smithy-go v1.11.2 // indirect
)
